^C:\USERS\ARYAN\REPOS\CPP_PROGRAMS\SEM_2_PROGRAMS\CALCULATOR\CALCULATOR\PCH.CPP
/c /ZI /JMC /nologo /W3 /WX- /diagnostics:classic /sdl /Od /Oy- /D WIN32 /D _DEBUG /D _CONSOLE /D _UNICODE /D UNICODE /Gm- /EHsc /RTC1 /MDd /GS /fp:precise /permissive- /Zc:wchar_t /Zc:forScope /Zc:inline /Yc"pch.h" /Fp"DEBUG\CALCULATOR.PCH" /Fo"DEBUG\\" /Fd"DEBUG\VC141.PDB" /Gd /TP /analyze- /FC C:\USERS\ARYAN\REPOS\CPP_PROGRAMS\SEM_2_PROGRAMS\CALCULATOR\CALCULATOR\PCH.CPP
^C:\USERS\ARYAN\REPOS\CPP_PROGRAMS\SEM_2_PROGRAMS\CALCULATOR\CALCULATOR\CALCULATOR.CPP
/c /ZI /JMC /nologo /W3 /WX- /diagnostics:classic /sdl /Od /Oy- /D WIN32 /D _DEBUG /D _CONSOLE /D _UNICODE /D UNICODE /Gm- /EHsc /RTC1 /MDd /GS /fp:precise /permissive- /Zc:wchar_t /Zc:forScope /Zc:inline /Yu"pch.h" /Fp"DEBUG\CALCULATOR.PCH" /Fo"DEBUG\\" /Fd"DEBUG\VC141.PDB" /Gd /TP /analyze- /FC C:\USERS\ARYAN\REPOS\CPP_PROGRAMS\SEM_2_PROGRAMS\CALCULATOR\CALCULATOR\CALCULATOR.CPP
