^C:\USERS\ARYAN\REPOS\CPP_PROGRAMS\SEM_2_PROGRAMS\CALCULATOR\CALCULATOR\PCH.CPP
C:\USERS\ARYAN\REPOS\CPP_PROGRAMS\SEM_2_PROGRAMS\CALCULATOR\CALCULATOR\DEBUG\CALCULATOR.PCH
C:\USERS\ARYAN\REPOS\CPP_PROGRAMS\SEM_2_PROGRAMS\CALCULATOR\CALCULATOR\DEBUG\VC141.PDB
C:\USERS\ARYAN\REPOS\CPP_PROGRAMS\SEM_2_PROGRAMS\CALCULATOR\CALCULATOR\DEBUG\VC141.IDB
C:\USERS\ARYAN\REPOS\CPP_PROGRAMS\SEM_2_PROGRAMS\CALCULATOR\CALCULATOR\DEBUG\PCH.OBJ
^C:\USERS\ARYAN\REPOS\CPP_PROGRAMS\SEM_2_PROGRAMS\CALCULATOR\CALCULATOR\CALCULATOR.CPP
C:\USERS\ARYAN\REPOS\CPP_PROGRAMS\SEM_2_PROGRAMS\CALCULATOR\CALCULATOR\DEBUG\VC141.PDB
C:\USERS\ARYAN\REPOS\CPP_PROGRAMS\SEM_2_PROGRAMS\CALCULATOR\CALCULATOR\DEBUG\VC141.IDB
C:\USERS\ARYAN\REPOS\CPP_PROGRAMS\SEM_2_PROGRAMS\CALCULATOR\CALCULATOR\DEBUG\CALCULATOR.OBJ
